{
  "profiles": {
    "Web": {
      "commandName": "Project",
      "commandLineArgs": "--opendatadirectory \"C:\\Users\\Vans\\Documents\\dev\\data-blablacte\"",
      "launchBrowser": true,
      "environmentVariables": {
        "ASPNETCORE_ENVIRONMENT": "Development"
      }
    }
  }
}