<?xml version="1.0" encoding="UTF-8" standalone="no"?>
<svg
   inkscape:version="1.1.1 (3bf5ae0d25, 2021-09-20)"
   sodipodi:docname="MarianneBlaBla.svg"
   viewBox="0 0 89.17067 32.426666"
   height="32.426666"
   width="89.17067"
   xml:space="preserve"
   id="svg10"
   version="1.1"
   xmlns:inkscape="http://www.inkscape.org/namespaces/inkscape"
   xmlns:sodipodi="http://sodipodi.sourceforge.net/DTD/sodipodi-0.dtd"
   xmlns="http://www.w3.org/2000/svg"
   xmlns:svg="http://www.w3.org/2000/svg"
   xmlns:rdf="http://www.w3.org/1999/02/22-rdf-syntax-ns#"
   xmlns:cc="http://creativecommons.org/ns#"
   xmlns:dc="http://purl.org/dc/elements/1.1/"><metadata
     id="metadata16"><rdf:RDF><cc:Work
         rdf:about=""><dc:format>image/svg+xml</dc:format><dc:type
           rdf:resource="http://purl.org/dc/dcmitype/StillImage" /></cc:Work></rdf:RDF></metadata><defs
     id="defs14"><clipPath
       id="clipPath28"
       clipPathUnits="userSpaceOnUse"><path
         id="path26"
         d="M 0,24.32 H 66.878 V 0 H 0 Z" /></clipPath><filter
       inkscape:label="Opacity"
       style="color-interpolation-filters:sRGB;"
       id="filter3719"
       x="0"
       y="0"
       width="1"
       height="1"><feColorMatrix
         values="1 0 0 0 0 0 1 0 0 0 0 0 1 0 0 0 0 0 5 -1 "
         result="colormatrix"
         id="feColorMatrix3715" /><feComposite
         in2="colormatrix"
         operator="arithmetic"
         k2="0.0868263"
         result="composite"
         id="feComposite3717" /></filter><filter
       inkscape:label="Opacity"
       style="color-interpolation-filters:sRGB;"
       id="filter3725"
       x="0"
       y="0"
       width="1"
       height="1"><feColorMatrix
         values="1 0 0 0 0 0 1 0 0 0 0 0 1 0 0 0 0 0 5 -1 "
         result="colormatrix"
         id="feColorMatrix3721" /><feComposite
         in2="colormatrix"
         operator="arithmetic"
         k2="0.0868263"
         result="composite"
         id="feComposite3723" /></filter><filter
       inkscape:label="Opacity"
       style="color-interpolation-filters:sRGB;"
       id="filter3731"
       x="0"
       y="0"
       width="1"
       height="1"><feColorMatrix
         values="1 0 0 0 0 0 1 0 0 0 0 0 1 0 0 0 0 0 5 -1 "
         result="colormatrix"
         id="feColorMatrix3727" /><feComposite
         in2="colormatrix"
         operator="arithmetic"
         k2="0.0868263"
         result="composite"
         id="feComposite3729" /></filter><filter
       inkscape:label="Opacity"
       style="color-interpolation-filters:sRGB;"
       id="filter3737"
       x="0"
       y="0"
       width="1"
       height="1"><feColorMatrix
         values="1 0 0 0 0 0 1 0 0 0 0 0 1 0 0 0 0 0 5 -1 "
         result="colormatrix"
         id="feColorMatrix3733" /><feComposite
         in2="colormatrix"
         operator="arithmetic"
         k2="0.0868263"
         result="composite"
         id="feComposite3735" /></filter><filter
       inkscape:label="Opacity"
       style="color-interpolation-filters:sRGB;"
       id="filter3743"
       x="0"
       y="0"
       width="1"
       height="1"><feColorMatrix
         values="1 0 0 0 0 0 1 0 0 0 0 0 1 0 0 0 0 0 5 -1 "
         result="colormatrix"
         id="feColorMatrix3739" /><feComposite
         in2="colormatrix"
         operator="arithmetic"
         k2="0.0868263"
         result="composite"
         id="feComposite3741" /></filter><filter
       inkscape:label="Opacity"
       style="color-interpolation-filters:sRGB;"
       id="filter3749"
       x="0"
       y="0"
       width="1"
       height="1"><feColorMatrix
         values="1 0 0 0 0 0 1 0 0 0 0 0 1 0 0 0 0 0 5 -1 "
         result="colormatrix"
         id="feColorMatrix3745" /><feComposite
         in2="colormatrix"
         operator="arithmetic"
         k2="0.0868263"
         result="composite"
         id="feComposite3747" /></filter><filter
       inkscape:label="Opacity"
       style="color-interpolation-filters:sRGB;"
       id="filter3755"
       x="0"
       y="0"
       width="1"
       height="1"><feColorMatrix
         values="1 0 0 0 0 0 1 0 0 0 0 0 1 0 0 0 0 0 5 -1 "
         result="colormatrix"
         id="feColorMatrix3751" /><feComposite
         in2="colormatrix"
         operator="arithmetic"
         k2="0.0868263"
         result="composite"
         id="feComposite3753" /></filter><filter
       inkscape:label="Opacity"
       style="color-interpolation-filters:sRGB;"
       id="filter3761"
       x="0"
       y="0"
       width="1"
       height="1"><feColorMatrix
         values="1 0 0 0 0 0 1 0 0 0 0 0 1 0 0 0 0 0 5 -1 "
         result="colormatrix"
         id="feColorMatrix3757" /><feComposite
         in2="colormatrix"
         operator="arithmetic"
         k2="0.0868263"
         result="composite"
         id="feComposite3759" /></filter><filter
       inkscape:label="Opacity"
       style="color-interpolation-filters:sRGB;"
       id="filter3767"
       x="0"
       y="0"
       width="1"
       height="1"><feColorMatrix
         values="1 0 0 0 0 0 1 0 0 0 0 0 1 0 0 0 0 0 5 -1 "
         result="colormatrix"
         id="feColorMatrix3763" /><feComposite
         in2="colormatrix"
         operator="arithmetic"
         k2="0.0868263"
         result="composite"
         id="feComposite3765" /></filter><filter
       inkscape:label="Opacity"
       style="color-interpolation-filters:sRGB;"
       id="filter3773"
       x="4.4856325e-06"
       y="0"
       width="0.99996711"
       height="1"><feColorMatrix
         values="1 0 0 0 0 0 1 0 0 0 0 0 1 0 0 0 0 0 5 -1 "
         result="colormatrix"
         id="feColorMatrix3769" /><feComposite
         in2="colormatrix"
         operator="arithmetic"
         k2="0.0868263"
         result="composite"
         id="feComposite3771" /></filter><filter
       inkscape:label="Opacity"
       style="color-interpolation-filters:sRGB;"
       id="filter3779"
       x="0"
       y="0"
       width="1"
       height="1"><feColorMatrix
         values="1 0 0 0 0 0 1 0 0 0 0 0 1 0 0 0 0 0 5 -1 "
         result="colormatrix"
         id="feColorMatrix3775" /><feComposite
         in2="colormatrix"
         operator="arithmetic"
         k2="0.0868263"
         result="composite"
         id="feComposite3777" /></filter></defs><sodipodi:namedview
     inkscape:current-layer="g18"
     inkscape:window-maximized="1"
     inkscape:window-y="-8"
     inkscape:window-x="2614"
     inkscape:cy="20.359075"
     inkscape:cx="59.5675"
     inkscape:zoom="22.52067"
     showgrid="false"
     id="namedview12"
     inkscape:window-height="1417"
     inkscape:window-width="2498"
     inkscape:pageshadow="2"
     inkscape:pageopacity="0"
     guidetolerance="10"
     gridtolerance="10"
     objecttolerance="10"
     borderopacity="1"
     bordercolor="#666666"
     pagecolor="#ffffff"
     inkscape:pagecheckerboard="0"
     inkscape:snap-others="true" /><g
     transform="matrix(1.3333333,0,0,-1.3333333,0,32.426667)"
     inkscape:label="Marianne"
     inkscape:groupmode="layer"
     id="g18"><path
       id="path20"
       style="fill:#ffffff;fill-opacity:1;fill-rule:nonzero;stroke:none;filter:url(#filter3779)"
       d="M 0,0 H 66.878 V 24.32 H 0 Z" /><g
       id="g22"
       style="filter:url(#filter3773)"><g
         clip-path="url(#clipPath28)"
         id="g24"><g
           transform="translate(19.6167,6.8952)"
           id="g30"><path
             id="path32"
             style="fill:#000091;fill-opacity:1;fill-rule:nonzero;stroke:none"
             d="M 0,0 C -0.046,0.046 0.138,0 0.184,0.092 H -0.184 C -0.23,0.092 -0.23,0.138 -0.23,0.185 -0.46,0.138 -0.735,0.046 -0.965,0 -1.287,-0.092 -1.562,-0.322 -1.93,-0.414 c -0.507,-0.183 -0.919,-0.597 -1.471,-0.781 -0.046,0 -0.046,0.047 -0.046,0.092 0.046,0.138 0.23,0.184 0.322,0.322 0,0.046 0,0.093 -0.046,0.093 0.368,0.504 0.873,0.78 1.333,1.194 v 0.138 c 0.138,0.183 0.367,0.275 0.459,0.505 0.046,0.138 0.23,0.321 0.46,0.413 -0.046,0.047 -0.138,0.047 -0.138,0.138 -0.184,0 -0.368,-0.091 -0.552,0.046 0.086,0.086 0.185,0.133 0.289,0.164 -0.04,0.008 -0.075,0.027 -0.105,0.067 -0.046,0.091 0.089,0.194 0.23,0.229 0.184,0.046 0.414,0.046 0.552,0.185 -0.322,0.046 -0.69,-0.093 -1.012,0.091 0.23,0.597 0.598,1.102 1.15,1.378 0.045,0 0.137,0 0.137,-0.046 0,-0.23 -0.137,-0.413 -0.367,-0.459 C -0.368,3.264 0,3.264 0.368,3.079 0.322,2.987 0.23,3.033 0.184,3.033 0.414,2.896 0.689,2.987 0.919,2.804 0.781,2.666 0.643,2.804 0.505,2.804 1.93,2.391 3.447,2.068 4.642,1.149 3.631,0.644 2.574,0.414 1.471,0.185 c -0.138,0 -0.23,0 -0.368,0.045 0,-0.045 0,-0.138 -0.046,-0.138 C 0.873,0.092 0.735,0.092 0.598,0 0.414,-0.092 0.138,-0.138 0,0 m -0.941,-3.197 c -0.004,-0.002 -0.008,-0.005 -0.012,-0.008 -0.172,-0.121 -0.343,-0.245 -0.524,-0.35 -0.197,-0.114 -0.402,-0.201 -0.607,-0.298 -10e-4,0.004 -0.003,0.008 -0.005,0.012 -0.016,0.021 -0.048,0.035 -0.078,0.018 -0.174,-0.094 -0.322,-0.218 -0.463,-0.352 -0.021,-0.02 -0.042,-0.041 -0.063,-0.062 -0.002,-0.001 -0.003,-0.002 -0.004,-0.003 -0.002,-10e-4 -0.003,-0.003 -0.004,-0.004 -0.022,-0.022 -0.043,-0.043 -0.065,-0.065 -0.004,-0.003 -0.005,-0.005 -0.008,-0.008 -10e-4,-10e-4 -10e-4,-0.002 -0.003,-0.004 -0.032,-0.032 -0.064,-0.065 -0.1,-0.107 -0.023,-0.027 -0.03,-0.044 -0.061,-0.065 -0.029,-0.019 -0.107,-0.018 -0.1,0.035 v 0.009 c -0.027,-0.015 -0.054,-0.029 -0.081,-0.042 -0.027,-0.012 -0.049,-0.026 -0.072,-0.04 -0.01,0.005 -0.021,0.006 -0.032,0.005 -0.012,0 -0.023,-0.003 -0.033,-0.011 -0.057,-0.044 -0.112,-0.091 -0.166,-0.14 C -3.519,-4.764 -3.608,-4.859 -3.689,-4.96 -3.69,-4.962 -3.691,-4.963 -3.693,-4.965 L -3.702,-4.977 C -3.707,-4.983 -3.711,-4.989 -3.716,-4.995 -3.72,-5.001 -3.725,-5.008 -3.73,-5.014 -3.732,-5.016 -3.733,-5.018 -3.734,-5.02 -3.745,-5.035 -3.755,-5.05 -3.766,-5.066 l -0.003,-0.002 c -0.006,-0.009 -0.019,-0.015 -0.036,-0.018 -0.007,0.009 -0.013,0.018 -0.019,0.027 -0.004,0.007 -0.009,0.015 -0.013,0.022 -0.013,0.024 -0.027,0.049 -0.039,0.074 l -10e-4,0.003 c -0.004,0.007 -0.007,0.015 -0.011,0.023 0.05,0.053 0.097,0.108 0.144,0.165 0.003,0.004 0.007,0.007 0.01,0.011 0.015,0.02 0.031,0.039 0.046,0.059 0.027,0.033 0.053,0.066 0.078,0.098 0.01,0.013 0.019,0.025 0.027,0.037 0.052,0.066 0.1,0.13 0.145,0.194 0,0.002 0.001,0.003 0.002,0.005 0.008,0.009 0.015,0.019 0.02,0.029 0.022,0.032 0.045,0.065 0.063,0.099 0.019,0.03 0.036,0.06 0.052,0.091 0.001,0.003 0.002,0.005 0.003,0.007 0.002,0.003 0.004,0.007 0.005,0.01 0.002,0.005 0.005,0.011 0.007,0.017 0.016,0.034 0.031,0.07 0.044,0.107 0.002,0.004 0.003,0.008 0.004,0.012 0.004,0.01 0.007,0.02 0.01,0.03 0.006,0.016 0.011,0.034 0.015,0.051 10e-4,0.003 0.002,0.007 0.003,0.011 0.005,0.022 0.011,0.044 0.016,0.067 0.002,0.013 -10e-4,0.022 -0.006,0.031 0.05,0.087 0.112,0.17 0.182,0.248 -0.007,-0.004 -0.014,-0.007 -0.021,-0.012 -0.066,-0.042 -0.109,-0.101 -0.17,-0.147 -0.05,-0.037 -0.144,0.025 -0.084,0.069 0.041,0.03 0.072,0.063 0.105,0.095 0.001,0.002 0.002,0.005 0.005,0.007 0.076,0.075 0.148,0.17 0.234,0.233 0.053,0.039 0.099,0.071 0.142,0.108 0.007,0.006 0.013,0.012 0.02,0.019 0.032,0.042 0.067,0.08 0.103,0.116 0.002,10e-4 0.003,0.003 0.005,0.004 0.439,0.425 1.18,0.406 1.76,0.676 0.23,0.092 0.505,-0.046 0.735,0 0.138,0 0.276,0 0.414,-0.091 -0.413,-0.226 -0.795,-0.479 -1.171,-0.716 m 0.824,-0.379 c -0.022,-0.051 -0.068,-0.094 -0.114,-0.135 0.058,-0.011 0.098,-0.037 0.061,-0.071 -0.107,-0.098 -0.208,-0.196 -0.349,-0.243 -0.009,-0.003 -0.037,-0.007 -0.07,-0.009 -0.057,-0.055 -0.113,-0.109 -0.172,-0.161 -0.054,-0.048 -0.307,-0.013 -0.23,0.055 0.117,0.103 0.225,0.216 0.34,0.321 0.065,0.059 0.134,0.116 0.191,0.183 0.032,0.037 0.059,0.073 0.099,0.102 0.038,0.026 0.281,0.048 0.244,-0.042 M -2.252,3.31 C -2.298,3.217 -2.349,3.207 -2.39,3.125 -2.437,3.033 -2.482,2.987 -2.574,2.941 c -0.045,0 -0.093,0 -0.093,0.046 0.048,0.184 0.185,0.368 0.369,0.414 0.046,0 0.046,-0.046 0.046,-0.091 M -6.066,0.276 c 0,0 -0.046,0.046 -0.046,0.092 0.597,0.781 1.057,1.516 1.469,2.343 0.599,0.322 1.095,0.791 1.564,1.287 0.781,0.827 1.608,1.563 2.574,2.022 C -0.138,6.158 0.322,6.112 0.689,5.974 0.551,5.79 0.322,5.837 0.138,5.698 0.092,5.698 0.046,5.698 0,5.745 0.046,5.79 0.046,5.837 0.046,5.882 -0.414,5.377 -1.057,5.147 -1.425,4.55 -1.7,4.09 -1.884,3.493 -2.482,3.355 -2.667,3.31 -2.437,3.493 -2.528,3.447 -3.952,2.574 -4.963,1.518 -6.066,0.276 m 7.031,-1.011 c -0.092,0 -0.276,-0.046 -0.23,0.047 0.046,0.229 0.368,0.229 0.552,0.32 0.092,0.046 0.229,0.139 0.321,0.093 C 1.7,-0.414 1.838,-0.368 1.93,-0.459 1.654,-0.735 1.287,-0.597 0.965,-0.735 m 7.067,-3.292 c 0.261,0.261 0.525,0.541 0.787,0.822 H 8.813 c 0.488,0.553 0.967,1.08 1.533,1.564 0.172,0.155 0.34,0.291 0.5,0.4 0.046,0.046 0.046,0.138 0.091,0.184 -0.229,-0.091 -0.367,-0.276 -0.597,-0.368 -0.046,0 -0.092,0.046 -0.046,0.092 0.164,0.123 0.327,0.246 0.491,0.369 -0.01,-0.001 -0.021,-0.001 -0.031,-0.001 -0.046,0 -0.046,0.046 -0.046,0.092 C 10.11,-0.781 9.651,-1.195 9.237,-1.562 9.145,-1.607 9.053,-1.516 9.008,-1.516 8.318,-1.746 7.813,-2.344 7.123,-2.62 v 0.092 C 6.847,-2.62 6.58,-2.786 6.296,-2.849 5.882,-2.94 5.515,-2.895 5.147,-2.895 4.59,-2.951 4.033,-3.074 3.476,-3.193 L 3.428,-3.205 C 3.129,-3.286 2.847,-3.398 2.572,-3.549 2.561,-3.556 2.55,-3.562 2.54,-3.568 2.517,-3.596 2.495,-3.624 2.474,-3.647 2.375,-3.756 2.29,-3.855 2.159,-3.922 1.876,-4.066 1.646,-4.316 1.396,-4.519 1.379,-4.534 1.351,-4.541 1.323,-4.543 1.076,-4.779 0.833,-5.019 0.583,-5.251 0.565,-5.268 0.494,-5.277 0.442,-5.268 c 0.002,10e-4 0.003,0.002 0.004,0.004 0.009,0.015 0.018,0.029 0.027,0.044 0.039,0.065 0.078,0.129 0.118,0.194 0.044,0.072 0.09,0.143 0.136,0.213 0.063,0.095 0.127,0.189 0.195,0.28 0.018,0.024 0.014,0.045 -0.001,0.06 -0.015,0.016 -0.039,0.025 -0.064,0.024 0.23,0.223 0.502,0.412 0.772,0.576 v 0.008 c -0.031,-0.011 -0.076,0.014 -0.052,0.046 0.029,0.041 0.052,0.084 0.079,0.125 0.005,0.014 0.01,0.027 0.015,0.041 C 1.659,-3.641 1.647,-3.629 1.636,-3.616 1.562,-3.665 1.483,-3.711 1.42,-3.768 1.31,-3.866 1.224,-4.069 1.057,-4.067 c -0.011,0 -0.043,0.002 -0.07,0.01 -0.02,0.003 -0.037,0.009 -0.048,0.016 0.002,0.004 0.004,0.007 0.006,0.011 l 0.007,0.013 c 0.002,0.003 0.004,0.007 0.006,0.011 0.008,0.013 0.015,0.027 0.022,0.04 0.008,0.013 0.015,0.026 0.022,0.039 0.006,0.011 0.012,0.022 0.018,0.032 0.011,0.02 0.021,0.039 0.032,0.059 0.008,0.014 0.017,0.027 0.024,0.041 0.02,0.034 0.04,0.068 0.06,0.101 0.009,0.017 0.018,0.033 0.028,0.049 0.017,0.028 0.032,0.056 0.049,0.084 0.023,0.038 -0.001,0.069 -0.035,0.082 0.086,0.11 0.19,0.203 0.315,0.274 H 1.48 c 0.175,0.089 0.351,0.196 0.527,0.295 0.026,0.022 0.05,0.044 0.076,0.066 -0.262,-0.088 -0.498,-0.207 -0.731,-0.361 0,0 -0.06,-0.025 -0.078,-0.042 0,0 -0.052,-0.019 -0.114,0.042 -0.006,0.009 -0.011,0.019 -0.011,0.034 0.046,0.092 0.184,0.138 0.276,0.231 0.046,0 0.091,0 0.091,-0.047 1.471,1.149 3.493,0.873 5.194,1.471 0.137,0.091 0.275,0.183 0.413,0.275 0.23,0.093 0.414,0.322 0.69,0.46 0.367,0.276 0.643,0.597 0.781,1.057 0,0.046 -0.046,0.092 -0.046,0.092 C 7.951,-0.275 7.261,-0.781 6.526,-1.148 5.561,-1.654 4.504,-1.562 3.493,-1.7 c 0.046,0.093 0.138,0.093 0.229,0.093 0,0.136 0.092,0.182 0.184,0.274 h 0.138 c 0.046,0 0.046,0.092 0.092,0.092 0.092,0 0.23,0.046 0.184,0.046 -0.138,0.184 -0.414,-0.138 -0.644,0 0.092,0.092 0.046,0.23 0.138,0.276 h 0.184 c 0,0.092 0.092,0.184 0.092,0.184 0.689,0.413 1.333,0.735 1.976,1.103 -0.138,0 -0.23,-0.138 -0.367,-0.046 0.091,0 0,0.138 0.091,0.138 0.506,0.138 0.92,0.413 1.425,0.597 -0.184,0 -0.322,-0.138 -0.505,0 0.092,0.047 0.137,0.138 0.275,0.138 v 0.138 c 0,0.046 0.046,0.046 0.092,0.046 -0.046,0 -0.092,0.046 -0.092,0.046 0.046,0.093 0.184,0.045 0.276,0.137 -0.046,0 -0.138,0 -0.138,0.047 0.138,0.183 0.368,0.229 0.598,0.275 -0.047,0.093 -0.184,0 -0.184,0.093 0,0.045 0.046,0.045 0.092,0.045 H 7.537 C 7.445,2.068 7.491,2.16 7.491,2.206 7.767,2.527 7.767,2.941 7.904,3.31 7.858,3.31 7.813,3.31 7.813,3.355 7.353,2.85 6.618,2.666 5.928,2.482 H 5.699 C 5.469,2.391 5.147,2.391 4.917,2.527 4.733,2.619 4.642,2.757 4.458,2.896 4.09,3.125 3.722,3.31 3.309,3.447 2.16,3.814 0.965,3.998 -0.23,3.952 c 0.506,0.277 1.063,0.299 1.609,0.46 0.781,0.229 1.516,0.505 2.343,0.459 -0.137,0.046 -0.321,0 -0.459,0 C 2.619,4.917 1.976,4.733 1.287,4.596 0.827,4.504 0.414,4.32 -0.046,4.229 -0.322,4.137 -0.46,3.86 -0.781,3.906 v 0.138 c 0.459,0.552 1.011,1.103 1.746,1.149 0.827,0.138 1.609,0 2.436,-0.092 C 3.998,5.055 4.55,4.917 5.147,4.78 c 0.23,0 0.276,-0.368 0.46,-0.414 0.275,-0.092 0.551,0 0.827,-0.183 0,0.091 -0.046,0.183 0,0.275 C 6.618,4.641 6.847,4.412 7.031,4.504 7.399,4.733 6.71,5.147 6.526,5.469 6.526,5.515 6.572,5.561 6.572,5.561 6.939,5.239 7.215,4.871 7.674,4.641 7.904,4.55 8.456,4.412 8.364,4.688 8.134,5.193 7.674,5.607 7.307,6.066 V 6.25 C 7.215,6.25 7.215,6.296 7.169,6.342 V 6.526 C 6.985,6.618 7.031,6.802 6.939,6.939 6.802,7.169 6.893,7.491 6.802,7.768 6.71,8.042 6.664,8.272 6.618,8.548 6.48,9.33 6.296,10.019 6.204,10.754 c -0.092,0.873 0.506,1.562 0.919,2.345 0.322,0.55 0.69,1.102 1.287,1.469 0.138,0.553 0.506,1.012 0.873,1.472 0.367,0.447 0.977,0.72 1.419,0.918 0.642,0.288 1.221,0.466 1.221,0.466 h -31.54 V -6.895 H 2.719 c 0.875,0.629 1.749,0.929 2.97,1.53 0.577,0.285 1.896,0.891 2.343,1.338" /></g><g
           transform="translate(66.8799,24.32)"
           id="g34"><path
             id="path36"
             style="fill:#e1000f;fill-opacity:1;fill-rule:nonzero;stroke:none"
             d="m 0,0 h -26.161 c 0,0 0.049,-0.008 0.249,-0.115 0.212,-0.114 0.486,-0.261 0.658,-0.351 0.339,-0.177 0.666,-0.398 0.877,-0.736 0.093,-0.137 0.231,-0.413 0.139,-0.597 -0.092,-0.23 -0.139,-0.597 -0.368,-0.69 -0.277,-0.137 -0.643,-0.137 -0.965,-0.091 -0.185,0 -0.368,0.046 -0.552,0.091 0.689,-0.275 1.333,-0.597 1.793,-1.24 0.046,-0.092 0.228,-0.138 0.413,-0.138 0.046,0 0.046,-0.092 0.046,-0.138 -0.093,-0.092 -0.185,-0.138 -0.139,-0.276 h 0.139 c 0.229,0.092 0.184,0.552 0.506,0.414 0.229,-0.138 0.32,-0.46 0.183,-0.689 -0.183,-0.184 -0.368,-0.322 -0.551,-0.46 -0.046,-0.092 -0.046,-0.23 0,-0.322 0.137,-0.184 0.183,-0.367 0.229,-0.551 0.139,-0.322 0.185,-0.69 0.322,-1.011 0.185,-0.69 0.368,-1.379 0.322,-2.068 0,-0.368 -0.185,-0.689 -0.046,-1.057 0.092,-0.369 0.322,-0.644 0.506,-0.965 0.183,-0.277 0.367,-0.46 0.504,-0.737 0.277,-0.459 0.783,-0.919 0.552,-1.469 -0.137,-0.323 -0.643,-0.277 -0.965,-0.46 -0.275,-0.23 -0.045,-0.597 0.092,-0.827 0.23,-0.414 -0.275,-0.69 -0.597,-0.828 0.091,-0.137 0.276,-0.091 0.322,-0.183 0.046,-0.231 0.275,-0.368 0.138,-0.598 -0.184,-0.275 -0.737,-0.414 -0.46,-0.827 0.183,-0.321 0.065,-0.68 -0.046,-1.012 -0.137,-0.413 -0.505,-0.596 -0.827,-0.688 -0.277,-0.093 -0.597,-0.093 -0.874,-0.046 -0.091,0.046 -0.183,0.092 -0.276,0.092 -0.78,0.092 -1.561,0.321 -2.344,0.321 -0.228,-0.046 -0.459,-0.092 -0.642,-0.184 -0.208,-0.153 -0.393,-0.318 -0.557,-0.492 l -0.006,-0.006 c -0.034,-0.037 -0.066,-0.074 -0.099,-0.111 -0.021,-0.023 -0.04,-0.047 -0.06,-0.07 -0.013,-0.017 -0.025,-0.031 -0.039,-0.047 -0.134,-0.168 -0.255,-0.347 -0.361,-0.53 -0.007,-0.012 -0.015,-0.024 -0.021,-0.036 -0.013,-0.021 -0.023,-0.043 -0.036,-0.063 -0.15,-0.28 -0.265,-0.565 -0.348,-0.845 -0.311,-1.051 -0.174,-1.955 0.043,-2.174 0.063,-0.061 1.518,-0.51 2.532,-0.961 0.475,-0.211 0.808,-0.375 1.085,-0.549 l 25.69,0 z" /></g><g
           transform="translate(42.2744,15.4474)"
           id="g38"><path
             id="path40"
             style="fill:#9c9b9b;fill-opacity:1;fill-rule:nonzero;stroke:none"
             d="M 0,0 C 0.185,-0.046 0.459,-0.046 0.459,-0.138 0.368,-0.505 -0.184,-0.597 -0.46,-0.965 h -0.138 c -0.137,-0.092 -0.09,-0.322 -0.229,-0.322 -0.138,0.046 -0.276,0 -0.414,-0.046 0.184,-0.183 0.414,-0.322 0.689,-0.275 0.047,0 0.138,-0.092 0.138,-0.184 0,0 0.046,0 0.092,0.046 0.046,0 0.093,0 0.093,-0.046 v -0.184 c -0.139,-0.184 -0.369,-0.092 -0.553,-0.138 0.368,-0.092 0.736,-0.092 1.057,0 0.276,0.092 0,0.552 0.184,0.781 -0.091,0 0,0.138 -0.091,0.138 0.091,0.092 0.183,0.23 0.276,0.276 0.091,0 0.229,0.046 0.275,0.138 0,0.092 -0.184,0.138 -0.138,0.23 0.276,0.183 0.506,0.459 0.414,0.735 -0.046,0.138 -0.414,0.138 -0.644,0.23 -0.229,0.091 -0.505,0 -0.78,-0.046 -0.231,0 -0.459,-0.138 -0.69,-0.184 -0.322,-0.092 -0.598,-0.276 -0.874,-0.46 0.322,0.138 0.644,0.184 1.011,0.276 0.277,0 0.511,0.068 0.782,0" /></g></g></g><path
       id="path33229"
       d="m 47.230348,14.08175 c 0.219054,-0.316397 0.403162,-0.654519 0.585551,-0.992776 0.282673,-0.512423 0.507437,-1.05226 0.709714,-1.600457 0.147744,-0.421484 0.272206,-0.850985 0.393667,-1.280701 0.06385,-0.2172186 0.04138,-0.2745344 0.32229,-0.01882 0.01799,0.01637 0.0027,0.0486 0.0026,0.07293 -3.8e-5,0.03584 -0.0019,0.07166 -0.0028,0.107496 -2.35e-4,0.248509 -0.0366,0.498783 -0.01575,0.747202 0.0035,0.04178 0.01163,0.08305 0.01745,0.124569 0.02099,0.09629 0.05264,0.191323 0.132454,0.25561 0.02248,0.01811 0.09802,0.06086 0.07452,0.04409 -0.159725,-0.11398 -0.229442,-0.12194 -0.0681,-0.07998 0.243365,0.02495 0.431722,-0.123823 0.596812,-0.283207 0.05061,-0.06388 0.179202,-0.183224 0.161004,-0.277956 -0.01023,-0.05327 -0.05954,-0.09855 -0.09162,-0.136099 -0.168042,-0.16515 -0.370068,-0.289197 -0.57338,-0.405725 0.05502,0.03186 0.110033,0.06371 0.165049,0.09557 0,0 -0.215444,-0.174396 -0.215444,-0.174396 v 0 c 0.102715,0.05928 0.205431,0.118554 0.308145,0.177832 0.202758,0.119172 0.405652,0.244377 0.569556,0.415304 0.04024,0.05431 0.07761,0.08717 0.08398,0.157604 0.0095,0.105007 -0.115236,0.219622 -0.173528,0.29164 -0.169324,0.164181 -0.361408,0.318747 -0.610791,0.307041 -0.200081,-0.04273 -0.09772,-0.01214 -0.409562,-0.188256 -0.121063,-0.06837 -0.170867,-0.188904 -0.194655,-0.320253 -0.005,-0.04211 -0.0121,-0.08404 -0.01499,-0.126348 -0.01704,-0.249405 0.01734,-0.499955 0.01368,-0.749484 -2.35e-4,-0.03553 0.0011,-0.07111 -7.04e-4,-0.106597 -0.0012,-0.02297 -0.03094,-0.0721 -0.0082,-0.06849 0.08564,0.01359 0.160442,0.06622 0.238012,0.104967 0.0044,0.0022 -0.01018,0.0034 -0.01261,0.0076 -0.02035,0.03574 -0.04598,0.129487 -0.0544,0.15659 -0.129358,0.427323 -0.25569,0.855954 -0.403938,1.277165 -0.203481,0.549038 -0.430222,1.089226 -0.709992,1.604441 -0.180781,0.339926 -0.36406,0.678642 -0.57253,1.002657 0,0 -0.241459,-0.140798 -0.241459,-0.140798 z"
       style="stroke-width:0.75;filter:url(#filter3767)" /><path
       id="path33231"
       d="m 50.486936,14.411625 c -0.03948,-0.348993 -0.03477,-0.699646 -0.01146,-1.049389 0.03973,-0.468705 0.100068,-0.93518 0.154098,-1.402328 0.03859,-0.335346 0.07296,-0.671105 0.122903,-1.005 0,0 0.243009,0.128621 0.243009,0.128621 v 0 c -0.05449,0.33184 -0.09132,0.666031 -0.130119,0.999997 -0.05506,0.466553 -0.115561,0.932565 -0.153676,1.40095 -0.0209,0.350225 -0.02472,0.702107 0.02577,1.05035 0,0 -0.250521,-0.123201 -0.250521,-0.123201 z"
       style="stroke-width:0.75;filter:url(#filter3761)" /><path
       id="path33233"
       d="m 51.757157,12.145847 c 0.228349,-0.03293 0.448847,-0.117829 0.63452,-0.256298 0.04256,-0.03173 0.08075,-0.06893 0.121128,-0.103389 0.14421,-0.144102 0.284631,-0.320199 0.324156,-0.525961 -0.008,-0.107882 -0.01015,-0.05825 0.220839,0.125105 0.0067,0.0053 -0.01562,0.007 -0.02285,0.01146 -0.01303,0.0082 -0.02503,0.01785 -0.03775,0.02648 -0.0485,0.03287 -0.03992,0.02646 -0.09432,0.05692 -0.09439,0.04195 -0.199204,0.07721 -0.304233,0.05914 -0.135281,-0.02327 -0.322885,-0.169248 -0.395193,-0.212695 -0.08163,-0.08628 -0.161048,-0.205716 -0.113937,-0.330178 0.0077,-0.02032 0.02155,-0.03773 0.03233,-0.05659 0.107163,-0.130766 0.279626,-0.154946 0.43868,-0.167379 0.02249,-5.9e-4 0.04499,-0.0012 0.06748,-0.0018 0,0 0.225423,0.163267 0.225423,0.163267 v 0 c -0.0224,7.8e-5 -0.04481,1.57e-4 -0.06721,2.36e-4 -0.150392,0.0078 -0.31827,0.02385 -0.422805,0.144966 -0.0092,0.01615 -0.02143,0.03094 -0.0277,0.04846 -0.04165,0.116462 0.04728,0.226559 0.125285,0.300427 -0.05537,-0.02855 -0.113185,-0.05282 -0.166128,-0.08566 -0.0247,-0.01532 0.0526,0.0258 0.08082,0.03273 0.100109,0.0246 0.202121,-0.009 0.293442,-0.0473 0.04505,-0.02484 0.08832,-0.05006 0.128867,-0.08193 0.01098,-0.0086 0.0191,-0.03249 0.03197,-0.02708 0.267778,0.112403 0.266066,0.05348 0.253232,0.173899 -0.05439,0.208443 -0.187821,0.389004 -0.340248,0.536944 -0.04108,0.03538 -0.08,0.07343 -0.123223,0.106152 -0.186652,0.141271 -0.406423,0.228796 -0.635197,0.272613 0,0 -0.227383,-0.162552 -0.227383,-0.162552 z"
       style="stroke-width:0.75;filter:url(#filter3755)" /><path
       id="path33235"
       d="m 46.441264,7.8031263 c 0.293186,-0.751122 0.46008,-1.5427373 0.61803,-2.3309363 0.11997,-0.548361 0.177558,-1.1063805 0.247939,-1.6622663 0.0014,-0.010598 0.02719,-0.2109893 0.03156,-0.2403173 0.01997,-0.1340557 0.04271,-0.1863817 0.238686,0.1622348 0.02353,0.04185 -0.02047,0.093806 -0.02998,0.1408613 -0.01268,0.062775 -0.02438,0.1257495 -0.03657,0.1886235 -0.06902,0.3962992 -0.116551,0.8019855 -0.04843,1.2021067 0.01198,0.070342 0.03196,0.1390815 0.04793,0.2086223 0.07584,0.2123745 0.168888,0.4486598 0.368576,0.5740065 -0.06594,-0.04395 -0.141963,-0.07565 -0.197828,-0.1318582 -0.01137,-0.011437 0.02902,-0.015112 0.04054,-0.0264 0.01829,-0.017932 0.03362,-0.038835 0.04779,-0.06018 0.06179,-0.093148 0.09958,-0.1991048 0.139307,-0.3026513 0.09789,-0.2498153 0.130378,-0.5146455 0.149632,-0.7800983 0.0038,-0.1926592 0.02855,-0.402216 -0.04337,-0.5869485 -0.0095,-0.024413 -0.02342,-0.046875 -0.03513,-0.070312 -0.06307,-0.106296 -0.163163,-0.177756 -0.268182,-0.23808 -0.08915,-0.06498 -0.333688,-0.2031818 0.08372,0.041685 0,0 -0.218578,-0.1742542 -0.218578,-0.1742542 v 0 c 0.133584,0.075188 0.26822,0.145563 0.394213,0.2324122 0.104361,0.063293 0.200097,0.1422045 0.258206,0.2518785 0.01073,0.02466 0.02358,0.04851 0.0322,0.073987 0.06392,0.189054 0.03662,0.3976005 0.03379,0.5924835 -0.01924,0.268287 -0.0535,0.535212 -0.151593,0.7878751 -0.04828,0.1288095 -0.09416,0.275025 -0.187968,0.3799027 -0.01456,0.01629 -0.02863,0.048457 -0.04972,0.042735 C 47.804875,6.050773 47.716222,5.9892243 47.621314,5.9447178 47.435718,5.8031223 47.346738,5.5754763 47.277932,5.359882 c -0.01477,-0.069952 -0.03328,-0.1392135 -0.0443,-0.2098508 -0.06294,-0.4033635 -0.01507,-0.811032 0.04719,-1.2111337 0.01054,-0.063832 0.02113,-0.1276613 0.03162,-0.1915035 0.0079,-0.047835 -0.02231,-0.1275256 0.02344,-0.1435306 0.08196,-0.028665 0.175344,0.014663 0.25647,0.045623 0.01526,0.00585 -0.0102,0.031087 -0.01359,0.047063 -0.01003,0.047363 -0.03328,0.1998825 -0.03897,0.23592 -0.08229,0.5513062 -0.152279,1.1048422 -0.276087,1.6491218 -0.164581,0.7914367 -0.342911,1.5810022 -0.585424,2.3528168 0,0 -0.23703,-0.13128 -0.23703,-0.13128 z"
       style="stroke-width:0.75;filter:url(#filter3749)" /><path
       id="path33237"
       d="M 49.863853,7.354072 C 49.834123,6.823936 49.785672,6.2947345 49.739296,5.7657663 49.687111,5.2111757 49.631215,4.656955 49.57936,4.1023277 c 0,0 0.227454,0.1135508 0.227454,0.1135508 v 0 c 0.03921,0.5527642 0.09126,1.10436 0.14524,1.6558613 0.05107,0.536298 0.104209,1.0723387 0.158916,1.6082445 0,0 -0.247117,-0.1259123 -0.247117,-0.1259123 z"
       style="stroke-width:0.75;filter:url(#filter3743)" /><path
       id="path33239"
       d="m 51.018047,5.267497 c 0.194558,-0.1195853 0.355867,-0.28602 0.468675,-0.4849073 0.02557,-0.045075 0.04579,-0.09298 0.06869,-0.1394692 0.119773,-0.2589675 0.102248,-0.4938668 0.06325,-0.7664483 -0.006,-0.026497 -0.02294,-0.1122607 -0.03772,-0.1426305 -0.0049,-0.010035 -0.03178,-0.030743 -0.02217,-0.025073 0.07408,0.043695 0.155778,0.079287 0.216809,0.1398885 0.01276,0.012668 -0.02922,0.021082 -0.04254,0.03315 -0.02197,0.01992 -0.04212,0.041768 -0.06318,0.062655 -0.114325,0.094677 -0.240603,0.2700863 -0.399954,0.287793 -0.0194,0.00218 -0.03875,-0.00465 -0.05813,-0.00697 -0.09311,-0.05838 -0.19259,-0.1076625 -0.279338,-0.1751362 -0.01807,-0.014062 -0.02298,-0.04062 -0.02703,-0.063157 -0.02828,-0.157278 0.08313,-0.2948926 0.174827,-0.4067221 0.126488,-0.1110367 0.0609,-0.060975 0.196056,-0.1511115 0,0 0.226819,0.1455443 0.226819,0.1455443 v 0 c -0.133291,0.085045 -0.06883,0.037485 -0.192757,0.143505 -0.07357,0.089441 -0.149079,0.180165 -0.161425,0.3011948 -0.0028,0.027052 5.1e-5,0.05511 0.0077,0.081219 0.0059,0.02025 0.05231,0.059963 0.03191,0.05463 -0.07087,-0.018548 -0.131224,-0.065182 -0.196837,-0.097778 0.01725,0.0063 0.03341,0.01815 0.05175,0.01881 0.142495,0.00518 0.297906,-0.188178 0.393555,-0.2740305 0.02043,-0.02193 0.04066,-0.04404 0.06128,-0.065783 0.01606,-0.016942 0.02621,-0.05628 0.04877,-0.050273 0.264705,0.070493 0.280141,0.1103941 0.31474,0.3101258 0.03391,0.276579 0.04762,0.516921 -0.07606,0.7775985 -0.02352,0.047273 -0.04445,0.095929 -0.07056,0.1418243 -0.11448,0.2012302 -0.274909,0.3707707 -0.464749,0.5022825 0,0 -0.232316,-0.15072 -0.232316,-0.15072 z"
       style="stroke-width:0.75;filter:url(#filter3737)" /><path
       id="path33241"
       d="m 54.510183,8.6443796 c 0.330507,-0.7545218 0.583838,-1.5390151 0.82641,-2.3251726 0.144629,-0.4771807 0.262655,-0.9615585 0.380783,-1.445736 0.02033,-0.083325 0.07231,-0.3161123 0.112669,-0.4218143 0.007,-0.01821 0.02018,-0.033367 0.03026,-0.050047 0.169555,0.1021163 0.355955,0.180426 0.508665,0.3063488 0.029,0.023918 -1.48e-4,0.075179 -3.93e-4,0.1127662 -3.17e-4,0.048555 -0.0028,0.097132 -0.0013,0.1456673 0.0029,0.094162 0.01592,0.2408557 0.03292,0.332505 0.01087,0.05862 0.02779,0.115953 0.04169,0.1739302 0.06045,0.2051918 0.157844,0.3958951 0.337211,0.5209328 0.03531,0.024615 0.148273,0.087386 0.112276,0.063787 C 56.77591,5.98185 56.65749,5.9107623 56.540547,5.8373695 c 0.03699,0.00727 0.0733,0.02004 0.110965,0.02193 0.193704,0.00974 0.371998,-0.1088797 0.497912,-0.2451337 0.04408,-0.047693 0.08041,-0.1019941 0.120616,-0.1529918 0.119895,-0.20418 0.253652,-0.4414725 0.212238,-0.6892313 C 57.461163,4.6455092 57.427286,4.6219465 57.35561,4.52068 57.264657,4.433497 57.246234,4.4093552 57.144809,4.3369855 c -0.03119,-0.022252 -0.129386,-0.082106 -0.09711,-0.06147 0.13134,0.083759 0.26268,0.167517 0.394019,0.2512755 -0.01215,0.01005 -0.0292,0.01614 -0.03644,0.030143 -0.01236,0.02391 -0.01308,0.052215 -0.01963,0.078326 0,0 -0.478459,-0.259656 -0.478459,-0.259656 v 0 c 0.0012,-0.00443 0.03722,-0.1973137 0.09572,-0.1779675 0.225273,0.074498 0.546728,0.2379375 0.740426,0.4278668 0.03518,0.0345 0.06629,0.072915 0.09943,0.1093762 0.0671,0.1153913 0.09875,0.140916 0.111371,0.2780295 0.02369,0.2573235 -0.116994,0.499362 -0.237131,0.7140031 -0.04012,0.054308 -0.07643,0.1116375 -0.120352,0.1629187 -0.12718,0.1485 -0.310019,0.2839545 -0.513524,0.293136 -0.03976,0.0018 -0.07913,-0.00872 -0.11869,-0.013072 -0.191111,-0.10206 -0.383978,-0.2008987 -0.573334,-0.30618 -0.0374,-0.020797 -0.07335,-0.04464 -0.106442,-0.071775 C 56.1149,5.6527263 56.027762,5.4522355 55.969627,5.2456982 c -0.01364,-0.059782 -0.03001,-0.1190017 -0.04092,-0.17934 -0.01927,-0.106557 -0.0289,-0.2323725 -0.03635,-0.34053 -0.0034,-0.04881 -0.0029,-0.097923 -0.0083,-0.1465432 -0.0039,-0.034717 -0.05361,-0.1114193 -0.01973,-0.102924 0.166978,0.041865 0.312844,0.143751 0.469267,0.2156272 -0.01328,0.00645 -0.0311,0.00743 -0.03985,0.019335 -0.06887,0.093686 -0.134368,0.3002475 -0.16273,0.3869805 -0.153967,0.470859 -0.276,0.9519053 -0.418911,1.4260523 -0.0536,0.189321 -0.105417,0.3791535 -0.160785,0.5679638 -0.178354,0.6082028 -0.385868,1.2072383 -0.564969,1.8151215 0,0 -0.476173,-0.2630557 -0.476173,-0.2630557 z"
       style="stroke-width:0.75;filter:url(#filter3731)" /><path
       id="path33243"
       d="m 57.858431,8.9343671 c 0.272742,-0.6969518 0.465102,-1.421802 0.669759,-2.1406913 0.127203,-0.4714455 0.276235,-0.936486 0.423678,-1.4018461 0,0 0.406869,0.2242118 0.406869,0.2242118 v 0 c -0.16291,0.4579253 -0.322369,0.917358 -0.442146,1.3889888 -0.197901,0.7293488 -0.388128,1.4609123 -0.575232,2.1930638 0,0 -0.482928,-0.263727 -0.482928,-0.263727 z"
       style="stroke-width:0.75;filter:url(#filter3725)" /><path
       id="path33245"
       d="m 60.347865,6.130744 c 0.268632,-0.076454 0.508247,-0.230013 0.700502,-0.4320292 0.04332,-0.045517 0.08105,-0.096055 0.121569,-0.1440826 0.106824,-0.168369 0.261047,-0.3691755 0.234435,-0.5836612 -0.0023,-0.018615 -0.01024,-0.036097 -0.01535,-0.05415 -0.148623,-0.1350855 -0.144474,-0.1278315 0.405157,0.2396197 0.01456,0.00974 -0.03395,-0.010845 -0.05146,-0.010545 -0.09047,0.0015 -0.218871,0.04806 -0.306529,0.070568 -0.15527,0.02622 -0.319581,0.090931 -0.479777,0.06213 -0.03014,-0.0054 -0.06066,-0.014025 -0.08687,-0.029865 -0.178086,-0.1075965 -0.349324,-0.2261385 -0.523987,-0.3392077 -0.0075,-0.031837 -0.02023,-0.062888 -0.0226,-0.095519 -0.01183,-0.163389 0.100817,-0.287106 0.231354,-0.367404 0.03481,-0.021413 0.07283,-0.037072 0.109246,-0.055613 0.189637,-0.0851 0.39287,-0.1058415 0.597743,-0.1138192 0.114685,5.73e-4 0.05944,-9e-4 0.165759,0.00398 0,0 0.441684,0.325479 0.441684,0.325479 v 0 c -0.107286,-0.00953 -0.0517,-0.00555 -0.166788,-0.011565 -0.199713,0.0057 -0.400364,0.018225 -0.588494,0.092568 -0.142037,0.06621 -0.337486,0.1656795 -0.296635,0.3587587 0.0056,0.02652 0.0218,0.049635 0.03269,0.07446 -0.135657,-0.070523 -0.270326,-0.1429717 -0.406971,-0.2115562 -0.02698,-0.013545 0.04922,0.03663 0.0778,0.046343 0.146844,0.049912 0.327946,-0.019065 0.47255,-0.04401 0.321366,-0.087898 0.6863,-0.292332 0.893051,0.2474797 0.0019,0.021083 0.0061,0.04209 0.0055,0.063248 -0.0054,0.224925 -0.155602,0.4229168 -0.274444,0.6010801 -0.04178,0.049568 -0.08091,0.1014892 -0.125318,0.1487107 -0.193489,0.2057385 -0.430004,0.363201 -0.68995,0.4716938 0,0 -0.4539,-0.3130815 -0.4539,-0.3130815 z"
       style="stroke-width:0.75;filter:url(#filter3719)" /></g></svg>
